<?xml version="1.0" encoding="UTF-8" standalone="no"?>
<svg width="64px" height="47px" viewBox="0 0 64 47" version="1.1" xmlns="http://www.w3.org/2000/svg" xmlns:xlink="http://www.w3.org/1999/xlink">
    <!-- Generator: Sketch 40.3 (33839) - http://www.bohemiancoding.com/sketch -->
    <title>logo_icon</title>
    <desc>Created with Sketch.</desc>
    <defs>
        <polygon id="path-1" points="31.9754826 47.0081301 63.9216287 47.0081301 63.9216287 0.102266667 0 0.102266667 0 47.0081301 31.9754826 47.0081301 63.9216479 47.0081301 63.9216479 15.0197691 0.0293365269 15.0197691 0.0293365269 47.0081301 31.9754826 47.0081301"></polygon>
        <polygon id="path-3" points="0 47.0977333 63.9216287 47.0977333 63.9216287 0.191869919 0 0.191869919"></polygon>
    </defs>
    <g id="Startseite" stroke="none" stroke-width="1" fill="none" fill-rule="evenodd">
        <g id="Export" transform="translate(-259.000000, -2284.000000)">
            <g id="logo_icon" transform="translate(259.000000, 2284.000000)">
                <path d="M63.0892647,15.786961 C63.0892647,15.786961 29.173097,19.0487496 20.933576,22.694278 C17.8677078,17.7056602 13.6521389,13.484522 1.00543234,15.9788309 C1.96351617,26.5316764 9.24495329,45.7186683 32.430582,46.294278 C55.6162108,46.8698878 62.8976479,22.3105382 63.0892647,15.786961 L63.0892647,15.786961 Z" id="Fill-1" fill="#D9DADB"></path>
                <g id="Group-5" transform="translate(0.000000, 0.089603)">
                    <mask id="mask-2" fill="white">
                        <use xlink:href="#path-1"></use>
                    </mask>
                    <g id="Clip-4"></g>
                    <path d="M31.9754922,47.0081301 C14.3603545,47.0081301 0.0293365269,32.6581789 0.0293365269,15.0197691 L1.94550419,15.0197691 C1.94550419,31.6002081 15.4169293,45.0894309 31.9754922,45.0894309 C48.5340551,45.0894309 62.0054802,31.6002081 62.0054802,15.0197691 L63.9216479,15.0197691 C63.9216479,32.6581789 49.5906299,47.0081301 31.9754922,47.0081301" id="Fill-3" fill="#FEFEFE" mask="url(#mask-2)"></path>
                </g>
                <path d="M5.98240958,31.8770572 L4.53148743,30.6239548 C4.65182275,30.4842735 7.57704431,27.1620459 16.1932838,23.5865499 C30.3796311,17.6997889 48.9660743,15.6955158 62.060206,15.050641 L62.1542898,16.9670377 C17.4232719,19.1697044 6.09163114,31.7502312 5.98240958,31.8770572" id="Fill-6" fill="#FEFEFE"></path>
                <path d="M11.3340168,38.4770754 L9.52707066,37.8385324 C9.59528623,37.6449356 11.284388,33.0406332 18.742879,28.2035925 C23.0444838,25.413612 28.415885,23.0981259 34.7074299,21.3212185 C42.5257772,19.1129876 51.8071186,17.7315242 62.2937293,17.2152023 L62.3878132,19.131599 C17.8861605,21.3229454 11.394376,38.3057356 11.3340168,38.4770754" id="Fill-8" fill="#FEFEFE"></path>
                <path d="M19.197509,43.4445301 L17.3761916,42.8483902 C17.4516886,42.6173789 19.2961916,37.1308585 25.7488862,31.5155935 C29.5103234,28.2426764 34.0725269,25.6012033 39.3088383,23.6644683 C45.8176766,21.2572683 53.394012,19.9383545 61.8278323,19.7445659 L61.8717126,21.6626894 C53.6502036,21.8516813 46.2825389,23.130878 39.9727904,25.4644 C34.9543473,27.3203577 30.5916168,29.8434472 27.0058922,32.9640195 C20.9486946,38.234878 19.2143713,43.3929171 19.197509,43.4445301" id="Fill-10" fill="#FEFEFE"></path>
                <path d="M27.9507928,46.1215184 L26.1198946,45.555694 C26.1894515,45.3302468 27.8804695,39.9753493 33.0755832,34.3813818 C37.8539305,29.236198 46.6261461,22.9334631 61.2821461,22.1260745 L61.3875353,24.0418956 C55.1849006,24.3836159 49.5659305,25.7646956 44.6864096,28.1467607 C40.7969725,30.0456972 37.3624335,32.5827932 34.4787928,35.6880159 C29.5791521,40.9638631 27.9665054,46.070481 27.9507928,46.1215184" id="Fill-12" fill="#FEFEFE"></path>
                <path d="M38.3187737,46.0759876 L36.4104623,45.9034966 C36.4256,45.7336917 36.8172647,41.6915681 40.0237796,37.0797828 C45.3269653,29.4523779 54.1252407,26.3124267 60.5719952,25.021334 L60.9477557,26.9028104 C52.2470132,28.6451811 45.5774084,32.5119356 41.6601868,38.0847974 C38.7039234,42.290586 38.3224144,46.038573 38.3187737,46.0759876" id="Fill-14" fill="#FEFEFE"></path>
                <path d="M20.6093796,23.1783467 C18.0815713,18.8474589 13.973691,16.4542654 8.39994251,16.0651532 C4.14049341,15.7677548 0.584469461,16.8096085 0.549020359,16.8201613 L3.83233532e-05,14.9818556 C0.156205988,14.9350393 3.87836168,13.8388865 8.47218204,14.1470296 C14.6583377,14.562428 19.4272958,17.3506816 22.2637988,22.2101711 L20.6093796,23.1783467 Z" id="Fill-16" fill="#FEFEFE"></path>
                <polygon id="Fill-18" fill="#FEFEFE" points="36.9656719 19.0485577 35.8159713 19.0485577 35.8159713 9.88772846 39.7607856 9.06499024 46.163085 10.2022033 46.163085 17.6858976 45.0133844 17.6858976 45.0133844 11.1671171 39.7782228 10.2371236 36.9656719 10.8238618"></polygon>
                <mask id="mask-4" fill="white">
                    <use xlink:href="#path-3"></use>
                </mask>
                <g id="Clip-21"></g>
                <polygon id="Fill-20" fill="#FEFEFE" mask="url(#mask-4)" points="39.2415808 18.484748 40.3912814 18.484748 40.3912814 9.65105691 39.2415808 9.65105691"></polygon>
                <polygon id="Fill-22" fill="#FEFEFE" mask="url(#mask-4)" points="44.1481964 10.6370189 40.7149988 4.49794894 37.5056096 10.3962221 36.4959808 9.84555545 40.7010108 2.11722699 45.1513102 10.0744563"></polygon>
                <polygon id="Fill-23" fill="#FEFEFE" mask="url(#mask-4)" points="40.2741461 9.61836228 40.0394156 0.220765528 41.1887329 0.191985041 41.4234635 9.58958179"></polygon>
                <polygon id="Fill-24" fill="#FEFEFE" mask="url(#mask-4)" points="26.4827018 20.875639 26.4827018 18.6583902 28.2358036 18.6583902 25.8112766 12.8621919 23.3986299 18.6464943 25.2958275 18.6464943 25.2958275 20.8654699"></polygon>
                <polygon id="Fill-25" fill="#FEFEFE" mask="url(#mask-4)" points="58.0993725 15.8870211 58.0993725 13.6697724 59.8526659 13.6697724 57.4279473 7.87357398 55.0153006 13.6578764 56.9126898 13.6578764 56.9126898 15.876852"></polygon>
                <polygon id="Fill-26" fill="#FEFEFE" mask="url(#mask-4)" points="53.1403497 16.078987 53.1403497 14.5340504 54.3620982 14.5340504 52.6726132 10.4951886 50.9913677 14.5258 52.3135234 14.5258 52.3135234 16.0718878"></polygon>
                <polygon id="Fill-27" fill="#FEFEFE" mask="url(#mask-4)" points="31.2955784 19.5326455 31.2955784 17.9524049 32.5451114 17.9524049 30.8169198 13.8212537 29.0975425 17.9439626 30.4495904 17.9439626 30.4495904 19.5255463"></polygon>
                <polygon id="Fill-28" fill="#FEFEFE" mask="url(#mask-4)" points="23.2476743 21.4512488 23.2476743 19.8712 24.4972072 19.8712 22.7690156 15.7400488 21.0496383 19.8627577 22.4016862 19.8627577 22.4016862 21.4441496"></polygon>
            </g>
        </g>
    </g>
</svg>