<?xml version="1.0" encoding="UTF-8" standalone="no"?>
<svg width="26px" height="18px" viewBox="0 0 26 18" version="1.1" xmlns="http://www.w3.org/2000/svg" xmlns:xlink="http://www.w3.org/1999/xlink">
    <!-- Generator: Sketch 39.1 (31720) - http://www.bohemiancoding.com/sketch -->
    <title>icon_youtube@3x</title>
    <desc>Created with Sketch.</desc>
    <defs></defs>
    <g id="Startseite" stroke="none" stroke-width="1" fill="none" fill-rule="evenodd">
        <g id="Artboard" transform="translate(-299.000000, -152.000000)" fill="#000000">
            <path d="M324.378417,154.895515 C324.062256,153.52211 322.9389,152.50885 321.586554,152.3577 C318.384162,152.00022 315.142849,151.998354 311.916465,152.00022 C308.689548,151.998354 305.447703,152.00022 302.245311,152.3577 C300.893764,152.50885 299.771208,153.52211 299.455047,154.895515 C299.005065,156.851392 299,158.986409 299,161.000133 C299,163.013858 299,165.148608 299.449982,167.104218 C299.76561,168.477357 300.888433,169.490617 302.240779,169.642033 C305.442905,169.99978 308.684483,170.001646 311.9114,169.99978 C315.138851,170.001646 318.37963,169.99978 321.581489,169.642033 C322.933035,169.490884 324.056658,168.477624 324.372819,167.104218 C324.823067,165.148341 324.824667,163.013591 324.824667,161.000133 C324.824667,158.986409 324.828399,156.851392 324.378417,154.895515 L324.378417,154.895515 Z M308.579718,165.008388 L308.579718,156.468054 C311.316667,157.896108 314.035488,159.314566 316.789763,160.751417 C314.044018,162.175472 311.323864,163.585399 308.579718,165.008388 L308.579718,165.008388 Z" id="Shape"></path>
        </g>
    </g>
</svg>